name="Anbennar-Post 1444"
tags={
	"Alternative History"
	"Total Conversion"
	"Fantasy"
}
dependencies={
	"Anbennar: A Fantasy Total Conversion Mod"
	"Anbennar-PublicFork"
}
replace_path="history/diplomacy"
supported_version="1.37.*"
path="C:/Users/tomjd/Documents/Paradox Interactive/Europa Universalis IV/mod/anbennar-post-1444"