
#136 - Dalmatia | 

owner = A01
controller = A01
add_core = A01
add_core = A67
culture = redfoot_halfling
religion = regent_court

hre = no

base_tax = 3
base_production = 6
base_manpower = 2

trade_goods = grain
capital = ""

is_city = yes

1550.1.1 = {
	owner = A97
	controller = A97
	add_core = A01
	add_core = A97
}








