
# No previous file for Banten
owner = F50
controller = F50
add_core = F50
culture = siadunan_harpy
religion = the_hunt

hre = no

base_tax = 1
base_production = 1
base_manpower = 4

trade_goods = salt

capital = ""

is_city = yes

1550.1.1 = {
	owner = F51
	controller = F51
	add_core = F51
	religion = the_jadd
}










