
# No previous file for Banten
owner = F46
controller = F46
add_core = F46
add_core = F79
culture = masnsih
religion = the_jadd

hre = no

base_tax = 2
base_production = 1
base_manpower = 2

trade_goods = livestock

capital = ""

is_city = yes

1550.1.1 = {
	owner = F51
	controller = F51
	add_core = F51
}










