
#375 - Munster

owner = A49
controller = A49
add_core = A49
culture = hill_gnoll
religion = xhazobkult

hre = no

base_tax = 1
base_production = 1
base_manpower = 1

trade_goods = wool

capital = ""

is_city = yes

1550.1.1 = {
	owner = A33
	controller = A33
	add_core = A33
}








