
#392 - Al-Arid

owner = U07
controller = U07
add_core = U07
add_core = U08
culture = seascourge_gnoll
religion = xhazobkult

hre = no

base_tax = 1
base_production = 2
base_manpower = 4

trade_goods = wool

capital = ""

is_city = yes

1550.1.1 = {
	owner = U08
	controller = U08
	add_core = U08
}








