
#410 -

owner = A48
controller = A48
add_core = A56
culture = arannese
religion = regent_court
hre = yes

base_tax = 2
base_production = 1
base_manpower = 3

trade_goods = grain

capital = ""

is_city = yes

1550.1.1 = {
	owner = A56
	controller = A56
	add_core = A56
}











add_nationalism = 10