
#458 - Kokand

owner = U06
controller = U06
add_core = U06
culture = desha
religion = mother_akasik

hre = no

base_tax = 2
base_production = 2
base_manpower = 1

trade_goods = grain

capital = ""

is_city = yes

1550.1.1 = {
	owner = A47
	controller = A47
	add_core = A47
}







