capital = ""
trade_goods = unknown
hre = no
base_tax = 1 
base_production = 1
base_manpower = 1
native_size = 0
native_ferocity = 0
native_hostileness = 0
trade_goods = unknown
1550.1.1 = {
	owner = Z43
	controller = Z43
	add_core = Z43
	is_city = yes
	culture = Z43
	religion = Z43
	tribal_owner = ---
}