# No previous file for Anbennar4698
owner = Y66
controller = Y66
add_core = Y66
culture = khom
religion = righteous_path

hre = no

fort_15th = yes

base_tax = 3
base_production = 3
base_manpower = 2

trade_goods = livestock

capital = ""

is_city = yes

1550.1.1 = {
	owner = Y97
	controller = Y97
	add_core = Y97
}