owner = Y62
controller = Y62
add_core = Y62
culture = sikai
religion = righteous_path

hre = no

base_tax = 3
base_production = 2
base_manpower = 2

trade_goods = livestock

capital = ""

is_city = yes

1550.1.1 = {
	owner = Y86
	controller = Y86
	add_core = Y86
}
