owner = Y10
controller = Y10
add_core = Y10
culture = river_yan
religion = lefthand_path

hre = no

base_tax = 4
base_production = 4
base_manpower = 3

trade_goods = grain

capital = ""

is_city = yes

1550.1.1 = {
	owner = R62
	controller = R62
	add_core = R62
	religion = godlost
}
