
#502 - Trinidad

owner = U01
controller = U01
add_core = U01
culture = hapremiti
religion = elikhetist

hre = no

base_tax = 2
base_production = 2
base_manpower = 1

trade_goods = livestock

capital = ""

is_city = yes

1550.1.1 = {
	owner = F66
	controller = F66
	add_core = F66
	religion = elikhetist
}









