owner = Y90
controller = Y90
add_core = Y90
culture = shuvuush
religion = saanorgegh

hre = no

base_tax = 2
base_production = 1
base_manpower = 2

trade_goods = grain

capital = ""

is_city = yes

1550.1.1 = {
	owner = Y91
	controller = Y91
	add_core = Y91
}