
#550 - Akal'telger

owner = F22
controller = F22
add_core = F22
add_core = F21
culture = bahari
religion = bulwari_sun_cult

base_tax = 6
base_production = 7
base_manpower = 4

trade_goods = cloth

capital = ""

is_city = yes

1550.1.1 = {
	owner = F78
	controller = F78
	add_core = F78
}












add_permanent_province_modifier = {
	name = elven_minority_oppressed_large
	duration = -1
}
