
#484 - Havana

owner = U09
controller = U09
add_core = U09
culture = sorrowclaw_gnoll
religion = xhazobkult

hre = no

base_tax = 1
base_production = 3
base_manpower = 1

trade_goods = sugar

capital = ""

is_city = yes

1550.1.1 = {
	owner = F66
	controller = F66
	add_core = F66
	religion = elikhetist
}



