
#581 - Yamet?es

owner = U18
controller = U18
add_core = U18
culture = bahari
religion = bulwari_sun_cult

base_tax = 1
base_production = 2
base_manpower = 1

trade_goods = fish

capital = ""

1550.1.1 = {
	owner = A47
	controller = A47
	add_core = A47
}









