
# No previous file for Jesselton
owner = F29
controller = F29
add_claim = F29
add_core = F25
culture = surani
religion = bulwari_sun_cult

hre = no

base_tax = 2
base_production = 2
base_manpower = 2

trade_goods = grain

capital = ""

is_city = yes

1550.1.1 = {
	owner = F51
	controller = F51
	add_core = F51
	religion = the_jadd
}

add_institution_embracement = {
    which = feudalism
    value = 100
}








