
# No previous file for Buru
owner = F29
controller = F29
add_core = F29
culture = sandfang_gnoll
religion = xhazobkult

hre = no

base_tax = 1
base_production = 1
base_manpower = 1

trade_goods = wool

capital = ""

is_city = yes

1550.1.1 = {
	owner = F51
	controller = F51
	add_core = F51
	religion = the_jadd
}








