
#6760 - Pasah

owner = U19
controller = U19
add_core = U19
culture = bahari
religion = bulwari_sun_cult

hre = no

base_tax = 1
base_production = 4
base_manpower = 2

trade_goods = dyes

capital = ""

is_city = yes

add_permanent_province_modifier = {
	name = elven_minority_integrated_large
	duration = -1
}

1550.1.1 = {
	owner = F78
	controller = F78
	add_core = F78
}







