
# No previous file for Chongqing
owner = U05
controller = U05
add_core = U05
culture = sadnatu
religion = bulwari_sun_cult

hre = no

base_tax = 2
base_production = 2
base_manpower = 1

trade_goods = wool

capital = ""

is_city = yes

1550.1.1 = {
	owner = F51
	controller = F51
	add_core = F51
	religion = the_jadd
}









